173387; 10m Zártirányzékú Légpuska 20 - Serdülo leány; ;
173388; 10m Zártirányzékú Légpuska 20 - Serdülo fiú; ;
173389; 10m Légpuska 40 - Serdülo leány; ;
173390; 10m Légpuska 40 - Serdülo fiú; ;
173391; 10m Légpuska 40 (tizedelt) - Ifjúsági leány; ;
173392; 10m Légpuska 40 (tizedelt) - Ifjúsági fiú; ;
173393; 10m Légpuska 60 (tizedelt) - Junior leány; ;
173394; 10m Légpuska 60 (tizedelt) - Junior fiú; -1; ZLPU_60_junior_fiu
173395; 10m Légpuska 60 (tizedelt) - Felnott noi; ;
173396; 10m Légpuska 60 (tizedelt) - Felnott férfi; ;
173398; 10m Légpisztoly 40 - Serdülo fiú; ;
173399; 10m Légpisztoly 40 - Ifjúsági leány; ;
173400; 10m Légpisztoly 40 - Ifjúsági fiú; ;
173401; 10m Légpisztoly 60 - Junior leány; ;
173402; 10m Légpisztoly 60 - Junior fiú; ;
173403; 10m Légpisztoly 60 - Felnott noi; ;
173404; 10m Légpisztoly 60 - Felnott férfi; ;
173405; 10m Nyílt irányzékú légpuska 20 lövés DIOL III-IV. - Serdülo leány; ;
173406; 10m Nyílt irányzékú légpuska 20 lövés DIOL III-IV. - Serdülo fiú; ;
173408; 10m Nyílt irányzékú Légpuska 20 (1a lolap) - Ifjúsági fiú; ;
173410; 10m Nyílt irányzékú Légpuska 20 (2a zártír. lolap) - Felnott férfi; ;
173412; 10m Légpisztoly 20 - Serdülo fiú; ;
173413; 10m Légpisztoly 20 - Ifjúsági leány; ;
173414; 10m Légpisztoly 20 - Ifjúsági fiú; ;
173415; 10m Légpisztoly 20 - Felnott noi; ;
173416; 10m Légpisztoly 20 - Felnott férfi; -1; LPI_20_felnott_ferfi
