173394; 10m Légpuska 60 (tizedelt) - Junior fiú; -1; Junior fiú; 14153; Bertalan Zolta Beke; 421; Pécsi Vasutas Sportkör; 98.8; 100.2; 100.6; 100.9; 97.8; 95.3; 593.6; -7
173394; 10m Légpuska 60 (tizedelt) - Junior fiú; -1; Junior fiú; 13322; Illés Dénes; 421; Pécsi Vasutas Sportkör; 102.1; 99.5; 100.4; 101.5; 104.0; 99.5; 607.0; -4
173394; 10m Légpuska 60 (tizedelt) - Junior fiú; -1; Junior fiú; 13636; Periskics Márton; 421; Pécsi Vasutas Sportkör; 98.9; 96.9; 99.6; 98.7; 100.1; 99.5; 593.7; -6
173394; 10m Légpuska 60 (tizedelt) - Junior fiú; -1; Junior fiú; 12148; Sallai Zsombor; 421; Pécsi Vasutas Sportkör; 104.9; 102.8; 100.2; 102.5; 98.4; 101.3; 610.1; -3
173394; 10m Légpuska 60 (tizedelt) - Junior fiú; -1; Junior fiú; 11550; Jakab Márton Péter; 15; BHSE; 96.6; 101.2; 100.4; 100.8; 98.4; 100.5; 597.9; -5
173394; 10m Légpuska 60 (tizedelt) - Junior fiú; -1; Junior fiú; 11492; Dénes András; 283; Cél-Tudat Sportlövo és Szabadidos SE; 106.0; 103.2; 104.4; 103.0; 105.1; 104.0; 625.7; -1
173394; 10m Légpuska 60 (tizedelt) - Junior fiú; -1; Junior fiú; 11710; Kálmán Bálint; 246; ZTE Sportlövész Klub; 105.0; 104.1; 103.8; 102.7; 104.4; 102.0; 622.0; -2
173416; 10m Légpisztoly 20 - Felnott férfi; -1; Felnott férfi; 16116; Kis László Mihály; 93; Délvidéki Lövészakadémia Szeged; 84.0; 85.0; 169.0; -11
173416; 10m Légpisztoly 20 - Felnott férfi; -1; Felnott férfi; 14644; Maksa Tibor; 93; Délvidéki Lövészakadémia Szeged; 85.0; 92.0; 177.0; -8
173416; 10m Légpisztoly 20 - Felnott férfi; -1; Felnott férfi; 5984; Pernyész Csaba; 93; Délvidéki Lövészakadémia Szeged; 84.0; 77.0; 161.0; -14
173416; 10m Légpisztoly 20 - Felnott férfi; -1; Felnott férfi; 13542; Czene József Attila; 21; Hatvani Vasutas Lövészklub; 94.0; 90.0; 184.0; -1
173416; 10m Légpisztoly 20 - Felnott férfi; -1; Felnott férfi; 1421; Andrássy Árpád; 93; Délvidéki Lövészakadémia Szeged; 82.0; 77.0; 159.0; -15
173416; 10m Légpisztoly 20 - Felnott férfi; -1; Felnott férfi; 6037; Zádori Tamás; 274; Bácsbokodi LTSzE; 72.0; 78.0; 150.0; -16
173416; 10m Légpisztoly 20 - Felnott férfi; -1; Felnott férfi; 15350; Zsoldos Jázon; 93; Délvidéki Lövészakadémia Szeged; 85.0; 89.0; 174.0; -10
173416; 10m Légpisztoly 20 - Felnott férfi; -1; Felnott férfi; 2727; Földesi Lajos; 64; Pécsi Sport Nonprofit Zrt.; 91.0; 89.0; 180.0; -6
173416; 10m Légpisztoly 20 - Felnott férfi; -1; Felnott férfi; 5845; Hinkel Zoltán; 238; Városföldi SE; 85.0; 91.0; 176.0; -9
173416; 10m Légpisztoly 20 - Felnott férfi; -1; Felnott férfi; 13560; Farkas Dávid; 238; Városföldi SE; 81.0; 83.0; 164.0; -12
173416; 10m Légpisztoly 20 - Felnott férfi; -1; Felnott férfi; 5204; Ita Zsolt; 74; Pécs Városi LK; 82.0; 81.0; 163.0; -13
173416; 10m Légpisztoly 20 - Felnott férfi; -1; Felnott férfi; 8648; Szász Dezso; 135; Dunaújvárosi LSE; 91.0; 92.0; 183.0; -3
173416; 10m Légpisztoly 20 - Felnott férfi; -1; Felnott férfi; 15527; Nagy Tibor; 15; BHSE; 92.0; 91.0; 183.0; -2
173416; 10m Légpisztoly 20 - Felnott férfi; -1; Felnott férfi; 12596; Botlik Péter; 64; Pécsi Sport Nonprofit Zrt.; 88.0; 94.0; 182.0; -4
173416; 10m Légpisztoly 20 - Felnott férfi; -1; Felnott férfi; 6898; Bérces Béla; 60; Komáromi VSE; 88.0; 91.0; 179.0; -7
